0000.002 (0) Opened log file at time: Fri, 27 Mar 2015 02:26:00 +0000 on http://192.168.33.10/vinhanhguitar
0000.006 (0) UpdraftPlus WordPress backup plugin (http://updraftplus.com): 1.9.60 WP: 4.1.1 PHP: 5.5.17-2+deb.sury.org~precise+1 (Linux scotchbox 3.2.0-23-generic #36-Ubuntu SMP Tue Apr 10 20:39:51 UTC 2012 x86_64) MySQL:  Server: Apache/2.4.10 (Ubuntu) safe_mode: 0 max_execution_time: 900 memory_limit: 256M (used: 7.2M | 7.5M) multisite: N mcrypt: Y LANG: C ZipArchive::addFile: Y
0000.009 (0) Free space on disk containing Updraft's temporary directory: 885605.9 Mb
0000.018 (0) Tasks: Backup files: 1 (schedule: unset) Backup DB: 1 (schedule: unset)
0000.030 (0) Requesting semaphore lock (fd)
0000.034 (0) Set semaphore last lock (fd) time to 2015-03-27 02:26:00
0000.035 (0) Semaphore lock (fd) complete
0000.042 (0) Backup run: resumption=0, nonce=d3dd3938a45a, begun at=1427423160 (0s ago), job type=backup
0000.070 (0) Scheduling a resumption (1) after 300 seconds (1427423460) in case this run gets aborted
0000.105 (0) Checking if we have a zip executable available
0000.108 (0) Creation of backups of directories: beginning
0000.115 (0) Beginning creation of dump of plugins (split every: 500 Mb)
0006.339 (0) Total entities for the zip file: 300 directories, 1937 files (0 skipped as non-modified), 23.8 Mb
0006.347 (0) Adding batch to zip file (UpdraftPlus_ZipArchive): over 2.0 seconds have passed since the last write (0 Mb, 1 (1) files added so far); re-opening (prior size: 0 Kb)
0006.667 (0) Zip: backup_2015-03-27-0926_Trung_Tm_Vnh_Anh_d3dd3938a45a-plugins.zip.tmp: 100 files added (on-disk size: 48.2 Kb)
0007.006 (0) Zip: backup_2015-03-27-0926_Trung_Tm_Vnh_Anh_d3dd3938a45a-plugins.zip.tmp: 200 files added (on-disk size: 48.2 Kb)
0007.261 (0) Zip: backup_2015-03-27-0926_Trung_Tm_Vnh_Anh_d3dd3938a45a-plugins.zip.tmp: 300 files added (on-disk size: 48.2 Kb)
0007.520 (0) Zip: backup_2015-03-27-0926_Trung_Tm_Vnh_Anh_d3dd3938a45a-plugins.zip.tmp: 400 files added (on-disk size: 48.2 Kb)
0007.756 (0) Zip: backup_2015-03-27-0926_Trung_Tm_Vnh_Anh_d3dd3938a45a-plugins.zip.tmp: 500 files added (on-disk size: 48.2 Kb)
0007.762 (0) Adding batch to zip file (UpdraftPlus_ZipArchive): over 500 files added on this batch (14.6 Mb, 1937 files batched, 501 (502) added so far); re-opening (prior size: 48.2 Kb)
0010.980 (0) Zip: backup_2015-03-27-0926_Trung_Tm_Vnh_Anh_d3dd3938a45a-plugins.zip.tmp: 600 files added (on-disk size: 4797.8 Kb)
0011.272 (0) Zip: backup_2015-03-27-0926_Trung_Tm_Vnh_Anh_d3dd3938a45a-plugins.zip.tmp: 700 files added (on-disk size: 4797.8 Kb)
0011.576 (0) Zip: backup_2015-03-27-0926_Trung_Tm_Vnh_Anh_d3dd3938a45a-plugins.zip.tmp: 800 files added (on-disk size: 4797.8 Kb)
0011.904 (0) Zip: backup_2015-03-27-0926_Trung_Tm_Vnh_Anh_d3dd3938a45a-plugins.zip.tmp: 900 files added (on-disk size: 4797.8 Kb)
0012.412 (0) Zip: backup_2015-03-27-0926_Trung_Tm_Vnh_Anh_d3dd3938a45a-plugins.zip.tmp: 1000 files added (on-disk size: 4797.8 Kb)
0012.428 (0) Adding batch to zip file (UpdraftPlus_ZipArchive): over 500 files added on this batch (1.8 Mb, 1937 files batched, 501 (1003) added so far); re-opening (prior size: 4797.8 Kb)
0014.953 (0) Zip: backup_2015-03-27-0926_Trung_Tm_Vnh_Anh_d3dd3938a45a-plugins.zip.tmp: 1100 files added (on-disk size: 5501.8 Kb)
0015.528 (0) Zip: backup_2015-03-27-0926_Trung_Tm_Vnh_Anh_d3dd3938a45a-plugins.zip.tmp: 1200 files added (on-disk size: 5501.8 Kb)
0016.294 (0) Zip: backup_2015-03-27-0926_Trung_Tm_Vnh_Anh_d3dd3938a45a-plugins.zip.tmp: 1300 files added (on-disk size: 5501.8 Kb)
0016.716 (0) Adding batch to zip file (UpdraftPlus_ZipArchive): over 2.0 seconds have passed since the last write (1.9 Mb, 385 (1388) files added so far); re-opening (prior size: 5501.8 Kb)
0018.391 (0) Zip: backup_2015-03-27-0926_Trung_Tm_Vnh_Anh_d3dd3938a45a-plugins.zip.tmp: 1400 files added (on-disk size: 6241.6 Kb)
0018.921 (0) Zip: backup_2015-03-27-0926_Trung_Tm_Vnh_Anh_d3dd3938a45a-plugins.zip.tmp: 1500 files added (on-disk size: 6241.6 Kb)
0019.346 (0) Zip: backup_2015-03-27-0926_Trung_Tm_Vnh_Anh_d3dd3938a45a-plugins.zip.tmp: 1600 files added (on-disk size: 6241.6 Kb)
0019.714 (0) Zip: backup_2015-03-27-0926_Trung_Tm_Vnh_Anh_d3dd3938a45a-plugins.zip.tmp: 1700 files added (on-disk size: 6241.6 Kb)
0020.154 (0) Zip: backup_2015-03-27-0926_Trung_Tm_Vnh_Anh_d3dd3938a45a-plugins.zip.tmp: 1800 files added (on-disk size: 6241.6 Kb)
0020.486 (0) Adding batch to zip file (UpdraftPlus_ZipArchive): over 500 files added on this batch (5 Mb, 1937 files batched, 501 (1889) added so far); re-opening (prior size: 6241.6 Kb)
0022.666 (0) Zip: backup_2015-03-27-0926_Trung_Tm_Vnh_Anh_d3dd3938a45a-plugins.zip.tmp: 1900 files added (on-disk size: 7577.8 Kb)
0023.559 (0) Created plugins zip (0) - 7919.6 Kb in 23.4 s (337.9 Kb/s) (SHA1 checksum: 7b0dee0c3f4995760774dea2f5ae9da2c52c9e55)
0023.568 (0) Beginning creation of dump of themes (split every: 500 Mb)
0024.750 (0) Total entities for the zip file: 66 directories, 594 files (0 skipped as non-modified), 10 Mb
0024.981 (0) Zip: backup_2015-03-27-0926_Trung_Tm_Vnh_Anh_d3dd3938a45a-themes.zip.tmp: 100 files added (on-disk size: 0 Kb)
0025.278 (0) Zip: backup_2015-03-27-0926_Trung_Tm_Vnh_Anh_d3dd3938a45a-themes.zip.tmp: 200 files added (on-disk size: 0 Kb)
0025.586 (0) Zip: backup_2015-03-27-0926_Trung_Tm_Vnh_Anh_d3dd3938a45a-themes.zip.tmp: 300 files added (on-disk size: 0 Kb)
0025.711 (0) Adding batch to zip file (UpdraftPlus_ZipArchive): over 2.0 seconds have passed since the last write (5.9 Mb, 328 (328) files added so far); re-opening (prior size: 0 Kb)
0027.492 (0) Zip: backup_2015-03-27-0926_Trung_Tm_Vnh_Anh_d3dd3938a45a-themes.zip.tmp: 400 files added (on-disk size: 4378.2 Kb)
0027.734 (0) Zip: backup_2015-03-27-0926_Trung_Tm_Vnh_Anh_d3dd3938a45a-themes.zip.tmp: 500 files added (on-disk size: 4378.2 Kb)
0029.452 (0) Created themes zip (0) - 6291.5 Kb in 5.9 s (1071.4 Kb/s) (SHA1 checksum: fe7341c79b6e1788656ae94cbd07f69ad3db4855)
0029.458 (0) Exclusion option setting (uploads): backup*,*backups,backwpup*,wp-clone
0029.461 (0) Looking for candidates to back up in: /var/www/public/vinhanhguitar/wp-content/uploads
0029.463 (0) finding files: 2015: adding to list (1)
0029.523 (0) finding files: wc-logs: adding to list (2)
0029.524 (0) finding files: woocommerce_uploads: adding to list (3)
0029.525 (0) Beginning creation of dump of uploads (split every: 500 Mb)
0029.733 (0) Total entities for the zip file: 4 directories, 146 files (0 skipped as non-modified), 5.7 Mb
0029.966 (0) Zip: backup_2015-03-27-0926_Trung_Tm_Vnh_Anh_d3dd3938a45a-uploads.zip.tmp: 100 files added (on-disk size: 0 Kb)
0031.354 (0) Created uploads zip (0) - 5693.1 Kb in 1.8 s (3128.6 Kb/s) (SHA1 checksum: 115ac2e254d08aac272f30ee3e54b7b26d03ca83)
0031.359 (0) Beginning backup of other directories found in the content directory (index: 0)
0031.360 (0) Exclusion option setting (others): upgrade,cache,updraft,backup*,*backups
0031.362 (0) Looking for candidates to back up in: /var/www/public/vinhanhguitar/wp-content
0031.364 (0) finding files: .DS_Store: adding to list (1)
0031.365 (0) finding files: index.php: adding to list (2)
0031.366 (0) finding files: plugins: skipping: this is the plugins directory
0031.367 (0) finding files: themes: skipping: this is the themes directory
0031.368 (0) finding files: updraft: skipping: this is the updraft directory
0031.369 (0) finding files: upgrade: skipping: excluded by options
0031.369 (0) finding files: uploads: skipping: this is the uploads directory
0031.384 (0) Total entities for the zip file: 0 directories, 2 files (0 skipped as non-modified), 0 Mb
0031.403 (0) Created others zip (0) - 0.7 Kb in 0 s (28.3 Kb/s) (SHA1 checksum: 5f6a79976b197dc4618fc88e6a563001101e0fe8)
0031.432 (0) Saving backup status to database (elements: 8)
0031.435 (0) Beginning creation of database dump (WordPress DB)
0031.455 (0) Testing: /usr/bin/mysqldump
0031.479 (0) Binary mysqldump: error (code: 2)
0031.492 (0) Table wp_options: Total expected rows (approximate): 124
0031.521 (0) Table wp_options: Total rows added: 375 in 0.03 seconds
0031.525 (0) Table wp_options: finishing file (backup_2015-03-27-0926_Trung_Tm_Vnh_Anh_d3dd3938a45a-db-table-wp_options.table.gz - 128.9 Kb)
0031.548 (0) Table wp_users: Total expected rows (approximate): 2
0031.551 (0) Table wp_users: Total rows added: 2 in 0.00 seconds
0031.554 (0) Table wp_users: finishing file (backup_2015-03-27-0926_Trung_Tm_Vnh_Anh_d3dd3938a45a-db-table-wp_users.table.gz - 0.6 Kb)
0031.585 (0) Table wp_usermeta: Total expected rows (approximate): 42
0031.589 (0) Table wp_usermeta: Total rows added: 42 in 0.00 seconds
0031.592 (0) Table wp_usermeta: finishing file (backup_2015-03-27-0926_Trung_Tm_Vnh_Anh_d3dd3938a45a-db-table-wp_usermeta.table.gz - 1.9 Kb)
0031.681 (0) Table wp_commentmeta: Total expected rows (approximate): 1
0031.684 (0) Table wp_commentmeta: Total rows added: 1 in 0.00 seconds
0031.687 (0) Table wp_commentmeta: finishing file (backup_2015-03-27-0926_Trung_Tm_Vnh_Anh_d3dd3938a45a-db-table-wp_commentmeta.table.gz - 0.4 Kb)
0031.694 (0) Table wp_comments: Total expected rows (approximate): 8
0031.697 (0) Table wp_comments: Total rows added: 8 in 0.00 seconds
0031.705 (0) Table wp_comments: finishing file (backup_2015-03-27-0926_Trung_Tm_Vnh_Anh_d3dd3938a45a-db-table-wp_comments.table.gz - 1.5 Kb)
0031.728 (0) Table wp_links: Total expected rows (approximate): 0
0031.731 (0) Table wp_links: Total rows added: 0 in 0.00 seconds
0031.734 (0) Table wp_links: finishing file (backup_2015-03-27-0926_Trung_Tm_Vnh_Anh_d3dd3938a45a-db-table-wp_links.table.gz - 0.4 Kb)
0031.742 (0) Table wp_postmeta: Total expected rows (approximate): 1099
0031.757 (0) Table wp_postmeta: Total rows added: 1118 in 0.01 seconds
0031.760 (0) Table wp_postmeta: finishing file (backup_2015-03-27-0926_Trung_Tm_Vnh_Anh_d3dd3938a45a-db-table-wp_postmeta.table.gz - 13.1 Kb)
0031.774 (0) Table wp_posts: Total expected rows (approximate): 159
0031.788 (0) Table wp_posts: Total rows added: 161 in 0.01 seconds
0031.791 (0) Table wp_posts: finishing file (backup_2015-03-27-0926_Trung_Tm_Vnh_Anh_d3dd3938a45a-db-table-wp_posts.table.gz - 17.1 Kb)
0031.813 (0) Table wp_term_relationships: Total expected rows (approximate): 93
0031.817 (0) Table wp_term_relationships: Total rows added: 93 in 0.00 seconds
0031.825 (0) Table wp_term_relationships: finishing file (backup_2015-03-27-0926_Trung_Tm_Vnh_Anh_d3dd3938a45a-db-table-wp_term_relationships.table.gz - 0.6 Kb)
0031.850 (0) Table wp_term_taxonomy: Total expected rows (approximate): 43
0031.853 (0) Table wp_term_taxonomy: Total rows added: 43 in 0.00 seconds
0031.856 (0) Table wp_term_taxonomy: finishing file (backup_2015-03-27-0926_Trung_Tm_Vnh_Anh_d3dd3938a45a-db-table-wp_term_taxonomy.table.gz - 0.7 Kb)
0031.881 (0) Table wp_terms: Total expected rows (approximate): 43
0031.885 (0) Table wp_terms: Total rows added: 43 in 0.00 seconds
0031.894 (0) Table wp_terms: finishing file (backup_2015-03-27-0926_Trung_Tm_Vnh_Anh_d3dd3938a45a-db-table-wp_terms.table.gz - 0.9 Kb)
0031.965 (0) Table wp_woocommerce_order_itemmeta: Total expected rows (approximate): 0
0031.968 (0) Table wp_woocommerce_order_itemmeta: Total rows added: 0 in 0.00 seconds
0031.971 (0) Table wp_woocommerce_order_itemmeta: finishing file (backup_2015-03-27-0926_Trung_Tm_Vnh_Anh_d3dd3938a45a-db-table-wp_woocommerce_order_itemmeta.table.gz - 0.3 Kb)
0032.141 (0) Table wp_woocommerce_termmeta: Total expected rows (approximate): 3
0032.144 (0) Table wp_woocommerce_termmeta: Total rows added: 3 in 0.00 seconds
0032.147 (0) Table wp_woocommerce_termmeta: finishing file (backup_2015-03-27-0926_Trung_Tm_Vnh_Anh_d3dd3938a45a-db-table-wp_woocommerce_termmeta.table.gz - 0.4 Kb)
0032.182 (0) Table wp_revslider_css: Total expected rows (approximate): 47
0032.185 (0) Table wp_revslider_css: Total rows added: 47 in 0.00 seconds
0032.188 (0) Table wp_revslider_css: finishing file (backup_2015-03-27-0926_Trung_Tm_Vnh_Anh_d3dd3938a45a-db-table-wp_revslider_css.table.gz - 1.8 Kb)
0032.204 (0) Table wp_revslider_layer_animations: Total expected rows (approximate): 0
0032.213 (0) Table wp_revslider_layer_animations: Total rows added: 0 in 0.00 seconds
0032.216 (0) Table wp_revslider_layer_animations: finishing file (backup_2015-03-27-0926_Trung_Tm_Vnh_Anh_d3dd3938a45a-db-table-wp_revslider_layer_animations.table.gz - 0.3 Kb)
0032.244 (0) Table wp_revslider_settings: Total expected rows (approximate): 0
0032.248 (0) Table wp_revslider_settings: Total rows added: 0 in 0.00 seconds
0032.251 (0) Table wp_revslider_settings: finishing file (backup_2015-03-27-0926_Trung_Tm_Vnh_Anh_d3dd3938a45a-db-table-wp_revslider_settings.table.gz - 0.3 Kb)
0032.278 (0) Table wp_revslider_sliders: Total expected rows (approximate): 1
0032.281 (0) Table wp_revslider_sliders: Total rows added: 1 in 0.00 seconds
0032.289 (0) Table wp_revslider_sliders: finishing file (backup_2015-03-27-0926_Trung_Tm_Vnh_Anh_d3dd3938a45a-db-table-wp_revslider_sliders.table.gz - 1.3 Kb)
0032.388 (0) Table wp_revslider_slides: Total expected rows (approximate): 4
0032.391 (0) Table wp_revslider_slides: Total rows added: 4 in 0.00 seconds
0032.394 (0) Table wp_revslider_slides: finishing file (backup_2015-03-27-0926_Trung_Tm_Vnh_Anh_d3dd3938a45a-db-table-wp_revslider_slides.table.gz - 0.5 Kb)
0032.401 (0) Table wp_woocommerce_attribute_taxonomies: Total expected rows (approximate): 0
0032.403 (0) Table wp_woocommerce_attribute_taxonomies: Total rows added: 0 in 0.00 seconds
0032.413 (0) Table wp_woocommerce_attribute_taxonomies: finishing file (backup_2015-03-27-0926_Trung_Tm_Vnh_Anh_d3dd3938a45a-db-table-wp_woocommerce_attribute_taxonomies.table.gz - 0.3 Kb)
0032.438 (0) Table wp_woocommerce_downloadable_product_permissions: Total expected rows (approximate): 0
0032.441 (0) Table wp_woocommerce_downloadable_product_permissions: Total rows added: 0 in 0.00 seconds
0032.444 (0) Table wp_woocommerce_downloadable_product_permissions: finishing file (backup_2015-03-27-0926_Trung_Tm_Vnh_Anh_d3dd3938a45a-db-table-wp_woocommerce_downloadable_product_permissions.table.gz - 0.4 Kb)
0032.526 (0) Table wp_woocommerce_order_items: Total expected rows (approximate): 0
0032.529 (0) Table wp_woocommerce_order_items: Total rows added: 0 in 0.00 seconds
0032.531 (0) Table wp_woocommerce_order_items: finishing file (backup_2015-03-27-0926_Trung_Tm_Vnh_Anh_d3dd3938a45a-db-table-wp_woocommerce_order_items.table.gz - 0.3 Kb)
0032.545 (0) Table wp_woocommerce_tax_rate_locations: Total expected rows (approximate): 0
0032.547 (0) Table wp_woocommerce_tax_rate_locations: Total rows added: 0 in 0.00 seconds
0032.558 (0) Table wp_woocommerce_tax_rate_locations: finishing file (backup_2015-03-27-0926_Trung_Tm_Vnh_Anh_d3dd3938a45a-db-table-wp_woocommerce_tax_rate_locations.table.gz - 0.3 Kb)
0032.716 (0) Table wp_woocommerce_tax_rates: Total expected rows (approximate): 0
0032.719 (0) Table wp_woocommerce_tax_rates: Total rows added: 0 in 0.00 seconds
0032.722 (0) Table wp_woocommerce_tax_rates: finishing file (backup_2015-03-27-0926_Trung_Tm_Vnh_Anh_d3dd3938a45a-db-table-wp_woocommerce_tax_rates.table.gz - 0.4 Kb)
0032.729 (0) backup_2015-03-27-0926_Trung_Tm_Vnh_Anh_d3dd3938a45a-db-table-wp_options.table.gz (1/23): adding to final database dump
0032.760 (0) backup_2015-03-27-0926_Trung_Tm_Vnh_Anh_d3dd3938a45a-db-table-wp_users.table.gz (2/23): adding to final database dump
0032.763 (0) backup_2015-03-27-0926_Trung_Tm_Vnh_Anh_d3dd3938a45a-db-table-wp_usermeta.table.gz (3/23): adding to final database dump
0032.767 (0) backup_2015-03-27-0926_Trung_Tm_Vnh_Anh_d3dd3938a45a-db-table-wp_commentmeta.table.gz (4/23): adding to final database dump
0032.770 (0) backup_2015-03-27-0926_Trung_Tm_Vnh_Anh_d3dd3938a45a-db-table-wp_comments.table.gz (5/23): adding to final database dump
0032.773 (0) backup_2015-03-27-0926_Trung_Tm_Vnh_Anh_d3dd3938a45a-db-table-wp_links.table.gz (6/23): adding to final database dump
0032.785 (0) backup_2015-03-27-0926_Trung_Tm_Vnh_Anh_d3dd3938a45a-db-table-wp_postmeta.table.gz (7/23): adding to final database dump
0032.791 (0) backup_2015-03-27-0926_Trung_Tm_Vnh_Anh_d3dd3938a45a-db-table-wp_posts.table.gz (8/23): adding to final database dump
0032.799 (0) backup_2015-03-27-0926_Trung_Tm_Vnh_Anh_d3dd3938a45a-db-table-wp_term_relationships.table.gz (9/23): adding to final database dump
0032.802 (0) backup_2015-03-27-0926_Trung_Tm_Vnh_Anh_d3dd3938a45a-db-table-wp_term_taxonomy.table.gz (10/23): adding to final database dump
0032.805 (0) backup_2015-03-27-0926_Trung_Tm_Vnh_Anh_d3dd3938a45a-db-table-wp_terms.table.gz (11/23): adding to final database dump
0032.808 (0) backup_2015-03-27-0926_Trung_Tm_Vnh_Anh_d3dd3938a45a-db-table-wp_woocommerce_order_itemmeta.table.gz (12/23): adding to final database dump
0032.824 (0) backup_2015-03-27-0926_Trung_Tm_Vnh_Anh_d3dd3938a45a-db-table-wp_woocommerce_termmeta.table.gz (13/23): adding to final database dump
0032.828 (0) backup_2015-03-27-0926_Trung_Tm_Vnh_Anh_d3dd3938a45a-db-table-wp_revslider_css.table.gz (14/23): adding to final database dump
0032.830 (0) backup_2015-03-27-0926_Trung_Tm_Vnh_Anh_d3dd3938a45a-db-table-wp_revslider_layer_animations.table.gz (15/23): adding to final database dump
0032.833 (0) backup_2015-03-27-0926_Trung_Tm_Vnh_Anh_d3dd3938a45a-db-table-wp_revslider_settings.table.gz (16/23): adding to final database dump
0032.836 (0) backup_2015-03-27-0926_Trung_Tm_Vnh_Anh_d3dd3938a45a-db-table-wp_revslider_sliders.table.gz (17/23): adding to final database dump
0032.846 (0) backup_2015-03-27-0926_Trung_Tm_Vnh_Anh_d3dd3938a45a-db-table-wp_revslider_slides.table.gz (18/23): adding to final database dump
0032.849 (0) backup_2015-03-27-0926_Trung_Tm_Vnh_Anh_d3dd3938a45a-db-table-wp_woocommerce_attribute_taxonomies.table.gz (19/23): adding to final database dump
0032.852 (0) backup_2015-03-27-0926_Trung_Tm_Vnh_Anh_d3dd3938a45a-db-table-wp_woocommerce_downloadable_product_permissions.table.gz (20/23): adding to final database dump
0032.854 (0) backup_2015-03-27-0926_Trung_Tm_Vnh_Anh_d3dd3938a45a-db-table-wp_woocommerce_order_items.table.gz (21/23): adding to final database dump
0032.857 (0) backup_2015-03-27-0926_Trung_Tm_Vnh_Anh_d3dd3938a45a-db-table-wp_woocommerce_tax_rate_locations.table.gz (22/23): adding to final database dump
0032.860 (0) backup_2015-03-27-0926_Trung_Tm_Vnh_Anh_d3dd3938a45a-db-table-wp_woocommerce_tax_rates.table.gz (23/23): adding to final database dump
0032.870 (0) backup_2015-03-27-0926_Trung_Tm_Vnh_Anh_d3dd3938a45a-db.gz: finished writing out complete database file (144 Kb)
0032.897 (0) Total database tables backed up: 23 (backup_2015-03-27-0926_Trung_Tm_Vnh_Anh_d3dd3938a45a-db.gz, size: 171705, checksum (SHA1): 2a57343721d63881f1e383a21013b9bdcffb1905)
0032.899 (0) Saving backup history
0032.920 (0) backup_2015-03-27-0926_Trung_Tm_Vnh_Anh_d3dd3938a45a-plugins.zip: plugins: This file has not yet been successfully uploaded: will queue
0032.922 (0) backup_2015-03-27-0926_Trung_Tm_Vnh_Anh_d3dd3938a45a-themes.zip: themes: This file has not yet been successfully uploaded: will queue
0032.923 (0) backup_2015-03-27-0926_Trung_Tm_Vnh_Anh_d3dd3938a45a-uploads.zip: uploads: This file has not yet been successfully uploaded: will queue
0032.926 (0) backup_2015-03-27-0926_Trung_Tm_Vnh_Anh_d3dd3938a45a-others.zip: others: This file has not yet been successfully uploaded: will queue
0032.927 (0) backup_2015-03-27-0926_Trung_Tm_Vnh_Anh_d3dd3938a45a-db.gz: db: This file has not yet been successfully uploaded: will queue
0032.940 (0) Requesting upload of the files that have not yet been successfully uploaded (5)
0032.945 (0) Cloud backup selection: none
0032.947 (0) No remote despatch: user chose no remote backup service
0032.950 (0) Recording as successfully uploaded: backup_2015-03-27-0926_Trung_Tm_Vnh_Anh_d3dd3938a45a-plugins.zip (52e4b1bc78d7f42e6f40457a2f5bdb06)
0032.993 (0) Recording as successfully uploaded: backup_2015-03-27-0926_Trung_Tm_Vnh_Anh_d3dd3938a45a-themes.zip (4603565599bb2c10ea9ca20b9bcd6bf5)
0033.007 (0) Recording as successfully uploaded: backup_2015-03-27-0926_Trung_Tm_Vnh_Anh_d3dd3938a45a-uploads.zip (25d5883dbf8eec05347e6a1897b75dc0)
0033.027 (0) Recording as successfully uploaded: backup_2015-03-27-0926_Trung_Tm_Vnh_Anh_d3dd3938a45a-others.zip (3551ff1ef17664a419fd2663fb4437bc)
0033.060 (0) Recording as successfully uploaded: backup_2015-03-27-0926_Trung_Tm_Vnh_Anh_d3dd3938a45a-db.gz (0c591233c8fe207aab1ab19428d8383d)
0033.088 (0) Retain: beginning examination of existing backup sets; user setting: retain_files=2, retain_db=2
0033.090 (0) Number of backup sets in history: 1
0033.094 (0) Examining backup set with datestamp: 1427423160 (Mar 27 2015 02:26:00)
0033.096 (0) 1427423160: db: this set includes a database (backup_2015-03-27-0926_Trung_Tm_Vnh_Anh_d3dd3938a45a-db.gz); db count is now 1
0033.099 (0) 1427423160: this backup set remains non-empty (1/1); will retain in history
0033.101 (0) Retain: saving new backup history (sets now: 1) and finishing retain operation
0033.102 (0) Resume backup (d3dd3938a45a, 0): finish run
0033.106 (0) Decremented the semaphore (fd) by 1
0033.109 (0) Semaphore (fd) unlocked
0033.110 (0) There were no errors in the uploads, so the 'resume' event (1) is being unscheduled
0033.115 (0) No email will/can be sent - the user has not configured an email address.
0033.124 (0) The backup apparently succeeded and is now complete
